IrisData Confusion Matrix
1.000000 0.000000 0.000000
0.000000 0.960000 0.040000
0.000000 0.040000 0.960000

Iris2DData Confusion Matrix
1.000000 0.000000 0.000000
0.000000 0.900000 0.100000
0.000000 0.080000 0.920000

Iris3DData Confusion Matrix
1.000000 0.000000 0.000000
0.000000 0.920000 0.080000
0.000000 0.080000 0.920000

